1 Introduction – That's weird! Anomaly detection using R
…
Spurious anomalies occur when a true observation is identified as anomalous, while undetected anomalies occur when an anomalous observation is not detected. Thus, when our purpose is anomaly detection, an undetected anomaly is a “false negative” while a spurious anomaly is a “false positive”. We can only really be sure about which observations are spurious or undetected anomalies when the data are synthetic. However, in some real data examples, there are such extreme anomalies that we will proceed under the assumption that we know that these are true anomalies.

In some applications, we will be less interested in detecting anomalies than in ranking observations according to their degree of “anomalousness”. For example, we may have a limited team of human analysts who can investigate a small number of observations, and we want to make sure that they investigate the most anomalous observations. Then it is important to compute an anomaly score, so we can rank the observations according to their scores, and our analysts can look at the observations with the highest scores.

In fact, anomaly scores often underpin the algorithms that are used to detect anomalies. The algorithms compute a score for each observation, and then identify the observations with scores above some threshold as the anomalies. So we will often be talking about anomaly scores, even when we are really interested in detecting anomalies.

1.4 Data sets

Test cricket batting data

Cricket is a popular sport in England, India, Australia, and other countries which had strong ties to England during the 19th and 20th centuries. The cricket_batting data contains summary statistics for all 3754 men and women to have played test cricket (the traditional and long form of the game), up to 6 October 2021. Each row contains data on one player, and we will be looking for anomalies in their playing statistics.

cricket_batting

#> # A tibble: 3,754 × 15
#>    Player       Country   Start   End Matches Innings NotOuts  Runs HighScore
#>    <chr>        <chr>     <int> <int>   <int>   <int>   <int> <int>     <dbl>
#>  1 BB Cooper    Australia  1877  1877       1       2       0    18        15
#>  2 C Bannerman  Australia  1877  1879       3       6       2   239       165
#>  3 DW Gregory   Australia  1877  1879       3       5       2    60        43
#>  4 EJ Gregory   Australia  1877  1877       1       2       0    11        11
#>  5 FR Spofforth Australia  1877  1887      18      29       6   217        50
#>  6 JM Blackham  Australia  1877  1894      35      62      11   800        74
#>  7 JR Hodges    Australia  1877  1877       2       4       1    10         8
#>  8 NFD Thomson  Australia  1877  1877       2       4       0    67        41
#>  9 TJD Kelly    Australia  1877  1879       2       3       0    64        35
#> 10 TK Kendall   Australia  1877  1877       2       4       1    39        17
#> # ℹ 3,744 more rows
#> # ℹ 6 more variables: HighScoreNotOut <lgl>, Average <dbl>, Hundreds <int>,
#> #   Fifties <int>, Ducks <int>, Gender <chr>

Old Faithful Geyser eruptions

Data on the eruptions of the Old Faithful Geyser in Yellowstone National Park, Wyoming, USA, have been collected for about 150 years. It was named “Old Faithful” due to the relatively predictable timing and length of its eruptions. The oldfaithful data set contains data on all 2261 eruptions recorded between 1 January 2015 and 1 October 2021.

oldfaithful

#> # A tibble: 2,261 × 3
#>    time                duration waiting
#>    <dttm>                 <dbl>   <dbl>
#>  1 2015-01-02 14:53:00      271    5040
#>  2 2015-01-09 23:55:00      247    6060
#>  3 2015-02-07 00:49:00      203    5460
#>  4 2015-02-14 01:09:00      195    5221
#>  5 2015-02-21 01:12:00      210    5401
#>  6 2015-02-28 01:11:00      185    5520
#>  7 2015-03-07 00:50:00      160    5281
#>  8 2015-03-13 21:57:00      226    6000
#>  9 2015-03-13 23:37:00      190    5341
#> 10 2015-03-20 22:26:00      102    3961
#> # ℹ 2,251 more rows

The time stamp indicates the start time of each eruption, with the other variables providing the duration of each eruption and the time to the next eruption (both in seconds).

Wine prices and quality

The wine_reviews data set contains data on 110,203 wines from 44 countries, taken from the Wine Enthusiast Magazine during the week of 15 June 2017.

wine_reviews <- fetch_wine_reviews()

wine_reviews

#> # A tibble: 110,203 × 8
#>    country  state             region         winery variety points price  year
#>    <chr>    <chr>             <chr>          <chr>  <chr>    <dbl> <dbl> <dbl>
#>  1 Portugal Douro             <NA>           Quint… Portug…     87    15  2011
#>  2 US       Oregon            Willamette Va… Rains… Pinot …     87    14  2013
#>  3 US       Michigan          Lake Michigan… St. J… Riesli…     87    13  2013
#>  4 US       Oregon            Willamette Va… Sweet… Pinot …     87    65  2012
#>  5 Spain    Northern Spain    Navarra        Tandem Tempra…     87    15  2011
#>  6 Italy    Sicily & Sardinia Vittoria       Terre… Frappa…     87    16  2013
#>  7 France   Alsace            Alsace         Trimb… Gewürz…     87    24  2012
#>  8 Germany  Rheinhessen       <NA>           Heinz… Gewürz…     87    12  2013
#>  9 France   Alsace            Alsace         Jean-… Pinot …     87    27  2012
#> 10 US       California        Napa           Kirkl… Cabern…     87    19  2011
#> # ℹ 110,193 more rows

The points variable provides a measure of wine quality based on a taster’s assessment on a scale of 0 to 100. The price is provided in $US. Other variables indicate the location of the winery and year of harvest.

Synthetic standard normal data

The n01 data set contains synthetic data on 10 variables, each generated independently from a Normal distribution with mean zero and variance one. So by definition, this data set contains no anomalies. We will add anomalies to the data when testing algorithms, in order to check that the algorithms can identify the artificial anomalies.

n01

#> # A tibble: 1,000 × 10
#>        v1      v2      v3      v4     v5     v6      v7     v8     v9     v10
#>     <dbl>   <dbl>   <dbl>   <dbl>  <dbl>  <dbl>   <dbl>  <dbl>  <dbl>   <dbl>
#>  1 -0.626  1.13   -0.886   0.739  -1.13  -1.52  -0.619  -1.33   0.264 -1.22  
#>  2  0.184  1.11   -1.92    0.387   0.765  0.629 -1.11    0.952 -0.829 -0.946 
#>  3 -0.836 -0.871   1.62    1.30    0.571 -1.68  -2.17    0.860 -1.46   0.0914
#>  4  1.60   0.211   0.519  -0.804  -1.35   1.18  -0.0313  1.06   1.68   0.701 
#>  5  0.330  0.0694 -0.0558 -1.60   -2.03   1.12  -0.260  -0.351 -1.54   0.673 
#>  6 -0.820 -1.66    0.696   0.933   0.590 -1.24   0.534  -0.131 -0.191  1.27  
#>  7  0.487  0.811   0.0535  1.81   -1.41  -1.23  -0.559   0.764  1.02  -1.45  
#>  8  0.738 -1.91   -1.31   -0.0565  1.61   0.598  1.61   -0.494  0.547  1.42  
#>  9  0.576 -1.25   -2.12    1.89    1.84   0.299  0.557   1.11   0.755 -1.59  
#> 10 -0.305  0.998  -0.208   1.58    1.37  -0.110  0.186   1.46  -0.420  0.246 
#> # ℹ 990 more rows
…
