6 Density-based methods – That's weird! Anomaly detection using R
…
# Compute surprisal probabilities of v1 assuming a standard Normal distribution
# and a t4 distribution
norm_prob <- tibble(
  y = n01$v1,
  p =      surprisals(y, distribution = dist_normal()),
  p_gpd =  surprisals(y, distribution = dist_normal(), approximation = "gpd"),
  p_emp =  surprisals(y, distribution = dist_normal(), approximation = "empirical"),
  pt =     surprisals(y, distribution = dist_student_t(4)),
  pt_gpd = surprisals(y, distribution = dist_student_t(4), approximation = "gpd"),
  pt_emp = surprisals(y, distribution = dist_student_t(4), approximation = "empirical")
)
norm_prob |> arrange(p)

#> # A tibble: 1,000 × 7
#>        y        p    p_gpd p_emp     pt   pt_gpd pt_emp
#>    <dbl>    <dbl>    <dbl> <dbl>  <dbl>    <dbl>  <dbl>
#>  1  3.81 0.000139 0.000135 0.001 0.0191 0.000132  0.001
#>  2  3.06 0.00225  0.00261  0.002 0.0380 0.00284   0.002
#>  3 -3.01 0.00263  0.00308  0.003 0.0398 0.00334   0.003
#>  4 -3.00 0.00273  0.00320  0.004 0.0402 0.00346   0.004
#>  5 -2.94 0.00328  0.00389  0.005 0.0425 0.00418   0.005
#>  6 -2.89 0.00387  0.00461  0.006 0.0448 0.00492   0.006
#>  7  2.68 0.00746  0.00913  0.007 0.0556 0.00948   0.007
#>  8  2.65 0.00807  0.00991  0.008 0.0572 0.0102    0.008
#>  9 -2.60 0.00943  0.0116   0.009 0.0604 0.0119    0.009
#> 10 -2.59 0.00953  0.0118   0.01  0.0607 0.0121    0.01 
#> # ℹ 990 more rows
…
This corresponds to the only orange point in Figure 6.3 that has a point value above 95 and a price below the 95% prediction interval.

Surprisal probabilities

We will compute the surprisal probabilities using the empirical approximation.

wine_aug |>
  mutate(prob = rank(-loo_surprisals) / NROW(wine_aug)) |>
  select(country:winery, year, points, price, loo_surprisals, prob) |>
  arrange(prob)

#> # A tibble: 4,496 × 9
#>    country   state     region winery  year points price loo_surprisals    prob
#>    <chr>     <chr>     <chr>  <chr>  <dbl>  <dbl> <dbl>          <dbl>   <dbl>
#>  1 Australia South Au… Eden … Hensc…  2009     91   780          20.1  2.22e-4
#>  2 US        Californ… Centr… Law     2013     92   750          18.3  4.45e-4
#>  3 Australia South Au… Eden … Hensc…  2010     96   820          14.4  6.67e-4
#>  4 Australia South Au… South… Penfo…  2008     98   850          12.5  8.90e-4
#>  5 Italy     Tuscany   Tosca… Tua R…  2011     89   300          11.7  1.11e-3
#>  6 Australia South Au… South… Penfo…  2010     99   850          11.5  1.33e-3
#>  7 Italy     Tuscany   Tosca… Tua R…  2013     90   300          10.7  1.67e-3
#>  8 Italy     Tuscany   Tosca… Tua R…  2012     90   300          10.7  1.67e-3
#>  9 France    Rhône Va… Côte … Domai…  2013     93   391          10.2  2.00e-3
#> 10 Australia South Au… South… Penfo…  2004     96   500           9.57 2.22e-3
#> # ℹ 4,486 more rows

Those with the ten smallest surprisal probabilities are all wines that appear to be over-priced given their points values.

The preceding analysis shows the calculations of surprisal probabilities in detail. They can be more simply computed using surprisals() as follows.

shiraz <- shiraz |>
  mutate(prob = surprisals(fit_wine, approximation = "empirical"))
shiraz |>
  select(country:winery, year, points, price, prob) |>
  arrange(prob)

#> # A tibble: 4,496 × 8
#>    country   state           region          winery  year points price    prob
#>    <chr>     <chr>           <chr>           <chr>  <dbl>  <dbl> <dbl>   <dbl>
#>  1 Australia South Australia Eden Valley     Hensc…  2009     91   780 2.22e-4
#>  2 US        California      Central Coast   Law     2013     92   750 4.45e-4
#>  3 Australia South Australia Eden Valley     Hensc…  2010     96   820 6.67e-4
#>  4 Australia South Australia South Australia Penfo…  2008     98   850 8.90e-4
#>  5 Italy     Tuscany         Toscana         Tua R…  2011     89   300 1.11e-3
#>  6 Australia South Australia South Australia Penfo…  2010     99   850 1.33e-3
#>  7 Italy     Tuscany         Toscana         Tua R…  2013     90   300 1.67e-3
#>  8 Italy     Tuscany         Toscana         Tua R…  2012     90   300 1.67e-3
#>  9 France    Rhône Valley    Côte Rôtie      Domai…  2013     93   391 2.00e-3
#> 10 Australia South Australia South Australia Penfo…  2004     96   500 2.22e-3
#> # ℹ 4,486 more rows
…
Figure 6.7: Proportion of not outs for each batter as a function of the number of innings they played, with a GAM fit using a Binomial distribution. The blue line shows the probability of a batter being not out as a function of the number of Innings they have played.

Now we can use the fitted model to compute the surprisals from the Binomial distribution, and find the most anomalous batters. Unfortunately, there is not a convenient way to compute LOO surprisals for GAM models, so we will only consider regular surprisals in this example. While the Binomial distribution is probably a good first approximation, it does assume that the probability of a batter being dismissed does not change over their career, which is an unlikely assumption as it does not allow for the development of skill, the value of experience, or the effect of ageing. So we will use the GPD approximation to compute the surprisal probabilities.

notouts_aug <- notouts_aug |>
  mutate(
    surprisals = surprisals(fit_notouts, probability = FALSE),
    prob = surprisals(fit_notouts, approximation = "gpd")
  ) |>
  select(Player:Country, Innings:NotOuts, prop_no:.fitted, surprisals:prob) |>
  arrange(desc(surprisals))
notouts_aug

#> # A tibble: 3,702 × 8
#>    Player           Country Innings NotOuts prop_no .fitted surprisals    prob
#>    <chr>            <chr>     <int>   <int>   <dbl>   <dbl>      <dbl>   <dbl>
#>  1 JM Anderson      England     233      99   0.425  0.120        71.3 3.10e-4
#>  2 CS Martin        New Ze…     104      52   0.5    0.121        47.1 7.32e-4
#>  3 RGD Willis       England     128      55   0.430  0.121        40.8 9.88e-4
#>  4 CA Walsh         West I…     185      61   0.330  0.0965       40.7 9.91e-4
#>  5 TA Boult         New Ze…      86      42   0.488  0.121        37.1 1.20e-3
#>  6 M Muralitharan   ICC/Sr…     164      56   0.341  0.102        36.8 1.22e-3
#>  7 EJ Chatfield     New Ze…      54      33   0.611  0.131        36.0 1.28e-3
#>  8 BS Chandrasekhar India        80      39   0.488  0.123        34.1 1.43e-3
#>  9 GD McGrath       Austra…     138      51   0.370  0.118        31.8 1.65e-3
#> 10 M Ntini          South …     116      45   0.388  0.122        29.1 1.99e-3
#> # ℹ 3,692 more rows
…
The “lookout” algorithm (standing for Leave-One-Out Kernel density estimates for OUTlier detection) was proposed by Kandanaarachchi and Hyndman (2022) and uses surprisal probabilities based on a GPD approximation. Unlike the KDE implementation used in this book, it uses a method of bandwidth selection based on topological data analysis. Probabilities obtained using this algorithm can be calculated using the lookout_prob() function.

Example: Old Faithful eruption durations

For the Old Faithful eruption duration data, we obtain the following results.

of_surprisals <- oldfaithful |>
  mutate(
    loo_kde_surprisal = surprisals(duration, loo = TRUE, probability = FALSE),
    prob = surprisals(duration, loo = TRUE),
  )
of_surprisals |> arrange(desc(loo_kde_surprisal))

#> # A tibble: 2,261 × 5
#>    time                duration waiting loo_kde_surprisal    prob
#>    <dttm>                 <dbl>   <dbl>             <dbl>   <dbl>
#>  1 2015-12-07 00:09:00     7200    3420            Inf    0      
#>  2 2018-04-25 19:08:00        1    5700            Inf    0      
#>  3 2020-10-25 16:31:00      305    6060              7.66 0.00502
#>  4 2015-03-07 00:50:00      160    5281              7.57 0.00601
#>  5 2019-03-14 22:43:00      160    5580              7.57 0.00601
#>  6 2020-09-15 18:01:00      160    5880              7.57 0.00601
#>  7 2020-09-16 14:44:00      160    6120              7.57 0.00601
#>  8 2020-05-07 22:55:00      304    6180              7.54 0.00854
#>  9 2020-05-21 00:27:00      304    5640              7.54 0.00854
#> 10 2017-09-01 01:18:00      155    4560              7.54 0.00919
#> # ℹ 2,251 more rows

The two infinite LOO surprisals correspond to the extreme 2 hour duration, and the tiny 1 second duration. These are so improbable given the rest of the data, that the scores are effectively infinite. The prob column contains the LOO surprisal probabilities based on the KDE.

If we omit the two extreme values, we obtain different results.

of_surprisals <- oldfaithful |>
  filter(duration > 1, duration < 7000) |>
  mutate(
    loo_kde_surprisal = surprisals(duration, loo = TRUE, probability = FALSE),
    prob = surprisals(duration, loo = TRUE),
  )
of_surprisals |> arrange(desc(loo_kde_surprisal))

#> # A tibble: 2,259 × 5
#>    time                duration waiting loo_kde_surprisal    prob
#>    <dttm>                 <dbl>   <dbl>             <dbl>   <dbl>
#>  1 2020-10-25 16:31:00      305    6060              8.11 0.00412
#>  2 2017-09-01 01:18:00      155    4560              8.01 0.00464
#>  3 2017-09-07 04:56:00      155    4740              8.01 0.00464
#>  4 2020-05-07 22:55:00      304    6180              8.01 0.00467
#>  5 2020-05-21 00:27:00      304    5640              8.01 0.00467
#>  6 2015-03-07 00:50:00      160    5281              7.93 0.00734
#>  7 2019-03-14 22:43:00      160    5580              7.93 0.00734
#>  8 2020-09-15 18:01:00      160    5880              7.93 0.00734
#>  9 2020-09-16 14:44:00      160    6120              7.93 0.00734
#> 10 2015-11-21 20:27:00      150    3420              7.91 0.00787
#> # ℹ 2,249 more rows
…
