7 Distance-based methods – That's weird! Anomaly detection using R
…
This provides a relative measure of the density of each observation compared to its neighbours. An observation is regarded as an anomaly if it is in a low-density region (far from its neighbours) while its neighbours are in higher density regions (with many neighbours nearby). A value of \ell_{i,k} much greater than 1 shows that the observation has much larger average reachability compared to its neighbours, and so is regarded as an anomaly.

One problem with this definition is that \ell_{i,k} can be infinite. If the data set contains at least k+1 identical observations, then the average reachability \bar{r}_k(j,k) will be 0 if \bm{y}_j is one of the group of identical observations. Consequently, \ell_{i,k} = \infty if \bm{y}_i is a neighbour to one of the group of identical observations. In this book we use a slightly different definition from that used elsewhere and replace these infinite values with zeros.

Another problem is that it can be difficult to determine an appropriate value for k.

Example: Old Faithful data

Code

of_scores <- oldfaithful |>
  mutate(lof = lof_scores(duration, k = 150))
of_scores |> arrange(desc(lof))

#> # A tibble: 2,261 × 4
#>    time                duration waiting    lof
#>    <dttm>                 <dbl>   <dbl>  <dbl>
#>  1 2015-12-07 00:09:00     7200    3420 752.  
#>  2 2018-04-25 19:08:00        1    5700   8.65
#>  3 2020-10-25 16:31:00      305    6060   3.26
#>  4 2020-05-07 22:55:00      304    6180   3.17
#>  5 2020-05-21 00:27:00      304    5640   3.17
#>  6 2019-03-14 19:28:00      302    5820   2.99
#>  7 2018-09-14 20:35:00      301    5640   2.90
#>  8 2019-07-25 06:32:00      300    5280   2.81
#>  9 2019-09-17 17:22:00      300    6060   2.81
#> 10 2020-05-07 20:02:00      299    5940   2.72
#> # ℹ 2,251 more rows
…
robustbase::covMcd

7.6 Detect deviating cells algorithm

Rousseeuw and Van den Bossche (2016)

7.7 Stray and HDoutliers algorithms

Code

of_scores <- of_scores |>
  mutate(stray = stray_scores(duration))
of_scores |> arrange(desc(stray))

#> # A tibble: 2,261 × 5
#>    time                duration waiting    lof    stray
#>    <dttm>                 <dbl>   <dbl>  <dbl>    <dbl>
#>  1 2015-12-07 00:09:00     7200    3420 752.   0.958   
#>  2 2018-04-25 19:08:00        1    5700   8.65 0.0124  
#>  3 2017-05-03 06:19:00       90    4740   1.79 0.00139 
#>  4 2015-11-21 20:27:00      150    3420   1.78 0.00125 
#>  5 2016-03-22 14:06:00      150    4860   1.78 0.00125 
#>  6 2016-07-13 21:55:00      150    4980   1.78 0.00125 
#>  7 2020-06-18 02:00:00       92    3600   1.67 0.00111 
#>  8 2021-08-14 21:38:06       92    3882   1.67 0.00111 
#>  9 2020-09-25 20:00:00       93    3540   1.61 0.000972
#> 10 2021-07-08 00:44:12      173   47628   1.63 0.000972
#> # ℹ 2,251 more rows
…
