9 Time series data – That's weird! Anomaly detection using R
…
Weird times: In the top plot, we are looking for historical anomalies within time series data. This is common in quality control, or in data cleaning. The aim is to find time periods where the observations are different from the rest of the data. Again, it can easily be extended to multivariate time series, where we look for time periods when one or more of the series may display unusual observations.

Weird series: In the middle plot, we are looking for an anomalous time series within a collection of time series. The observations within each series may all be consistent, but the series as a whole may be unusual. This is, by its nature, a multivariate problem. It is common in finance, where we look for unusual behaviour of a stock within a collection of stocks, or in health, where we look for unusual behaviour of a patient within a collection of patients.

Surveillance: In the bottom plot, we are looking for an anomaly in the next observation in the time series. This is commonly done in surveillance, when a time is monitored in real time to identify an unusual observation, and appropriate action taken. An anomaly in this context, is an observation that is very different from what was forecast. Although only a single time series is shown in this plot, the idea easily extends to multivariate time series, where we look for something unusual occurring in the next time period across a set of time series.

We will discuss each of these paradigms in turn.

9.2 Weird times

As a vehicle of illustration, we will consider French mortality rates, disaggregated by age and sex. These are obtained from the Human Mortality Database (2024). We will consider male and female data from 1816 to 1999 over ages 0 to 85, giving 172 separate time series, each of length 184. In fact, the top plot in Figure 9.1 shows the male mortality rates for 25 year olds over this time period.

fr_mortality

#> # A tibble: 31,648 × 4
#>     Year   Age Sex    Mortality
#>    <int> <int> <chr>      <dbl>
#>  1  1816     0 Female   0.187  
#>  2  1816     1 Female   0.0467 
#>  3  1816     2 Female   0.0339 
#>  4  1816     3 Female   0.0229 
#>  5  1816     4 Female   0.0160 
#>  6  1816     5 Female   0.0138 
#>  7  1816     6 Female   0.0121 
#>  8  1816     7 Female   0.0104 
#>  9  1816     8 Female   0.00891
#> 10  1816     9 Female   0.00760
#> # ℹ 31,638 more rows
…
1940-1944: World War II

Surprisal anomalies

The Hampel identifier worked well for the annual mortality series, but the local median approach will break down when there is seasonality or other systematic patterns in the data. However, the same idea can be adapted by replacing the local median with a more sophisticated way of modelling the signal in the data. One such method is STL (Seasonal Trend decomposition using Loess) due to Cleveland et al. (1990), and extended by Bandara, Hyndman, and Bergmeir (2022) to handle multiple seasonal periods or series with no seasonality. In the latter case, Friedman’s SuperSmoother (Friedman 1984) is used to estimate the signal m_t. This uses local linear regressions rather than local medians, with the window width chosen by cross-validation. Other estimates of m_t are also possible, provided they are robust to outliers.

fr_fit <- fr_mortality |>
  as_tsibble(index = Year, key = c(Age, Sex)) |>
  model(stl = STL(Mortality)) |>
  augment() |>
  as_tibble() |>
  select(-.model, -.innov)
fr_fit

#> # A tibble: 31,648 × 6
#>      Age Sex     Year Mortality .fitted   .resid
#>    <int> <chr>  <int>     <dbl>   <dbl>    <dbl>
#>  1     0 Female  1816     0.187   0.192 -0.00503
#>  2     0 Female  1817     0.182   0.191 -0.00958
#>  3     0 Female  1818     0.186   0.191 -0.00488
#>  4     0 Female  1819     0.197   0.190  0.00691
#>  5     0 Female  1820     0.181   0.189 -0.00826
#>  6     0 Female  1821     0.182   0.188 -0.00662
#>  7     0 Female  1822     0.207   0.188  0.0196 
#>  8     0 Female  1823     0.192   0.187  0.00521
#>  9     0 Female  1824     0.199   0.186  0.0124 
#> 10     0 Female  1825     0.194   0.185  0.00909
#> # ℹ 31,638 more rows

The .fitted column contains the estimates of m_t, while the .resid column contains the differences y_t - \hat{m}_t. We will estimate s_t using a robust estimate of standard deviation across each series (rather than locally, as was done with the Hampel method). This time, we will use IQR, rather than MAD, to estimate the spread, with a similar adjustment so that it is equivalent to a standard deviation if they data were normally distributed.

fr_sd <- fr_fit |>
  group_by(Age, Sex) |>
  summarise(s = IQR(.resid) / 1.349, .groups = "drop")
fr_scores <- fr_fit |>
  left_join(fr_sd, by = c("Age", "Sex")) |>
  mutate(e = .resid / s)
fr_scores

#> # A tibble: 31,648 × 8
#>      Age Sex     Year Mortality .fitted   .resid       s      e
#>    <int> <chr>  <int>     <dbl>   <dbl>    <dbl>   <dbl>  <dbl>
#>  1     0 Female  1816     0.187   0.192 -0.00503 0.00786 -0.640
#>  2     0 Female  1817     0.182   0.191 -0.00958 0.00786 -1.22 
#>  3     0 Female  1818     0.186   0.191 -0.00488 0.00786 -0.621
#>  4     0 Female  1819     0.197   0.190  0.00691 0.00786  0.879
#>  5     0 Female  1820     0.181   0.189 -0.00826 0.00786 -1.05 
#>  6     0 Female  1821     0.182   0.188 -0.00662 0.00786 -0.843
#>  7     0 Female  1822     0.207   0.188  0.0196  0.00786  2.49 
#>  8     0 Female  1823     0.192   0.187  0.00521 0.00786  0.663
#>  9     0 Female  1824     0.199   0.186  0.0124  0.00786  1.58 
#> 10     0 Female  1825     0.194   0.185  0.00909 0.00786  1.16 
#> # ℹ 31,638 more rows

At this point, we could identify a point as an anomaly if it is more than k standard deviations away from m_t, as was done with the Hampel identifier. This is also the approach taken by the tsoutliers function from the forecast package, which uses 3 IQR as the threshold, equivalent to k=4.05 standard deviations. But we will use density scores instead, and compute the corresponding surprisal probabilities assuming the residuals follow a Normal distribution.

fr_scores <- fr_scores |>
  mutate(
    s = -dnorm(e, log = TRUE),
    prob = surprisals(s)
  )
fr_scores |> arrange(prob)

#> # A tibble: 31,648 × 9
#>      Age Sex     Year Mortality .fitted   .resid     s      e     prob
#>    <int> <chr>  <int>     <dbl>   <dbl>    <dbl> <dbl>  <dbl>    <dbl>
#>  1     0 Female  1816     0.187   0.192 -0.00503  1.12 -0.640 0.000100
#>  2     0 Female  1817     0.182   0.191 -0.00958  1.66 -1.22  0.000100
#>  3     0 Female  1818     0.186   0.191 -0.00488  1.11 -0.621 0.000100
#>  4     0 Female  1819     0.197   0.190  0.00691  1.31  0.879 0.000100
#>  5     0 Female  1820     0.181   0.189 -0.00826  1.47 -1.05  0.000100
#>  6     0 Female  1821     0.182   0.188 -0.00662  1.27 -0.843 0.000100
#>  7     0 Female  1822     0.207   0.188  0.0196   4.02  2.49  0.000100
#>  8     0 Female  1823     0.192   0.187  0.00521  1.14  0.663 0.000100
#>  9     0 Female  1824     0.199   0.186  0.0124   2.17  1.58  0.000100
#> 10     0 Female  1825     0.194   0.185  0.00909  1.59  1.16  0.000100
#> # ℹ 31,638 more rows
…
In surveillance, we are interested in identifying anomalies in real time. This is common in monitoring systems, where we want to identify unusual behaviour as soon as it occurs. For example, in a manufacturing plant, we may want to identify when a machine is not operating as expected, and take action to prevent further problems. In retail, we may want to identify when sales are unusually high or low, and adjust stock levels if necessary.

Again, we will use the PBS data. For this example, we will combine the data into ATC level 2 groups, and look at total sales volumes (measured in thousands of scripts).

Code

pbs <- PBS |>
  arrange(ATC2, Month) |>
  group_by(ATC2) |>
  summarise(Scripts = sum(Scripts) / 1e3, .groups = "drop") |>
  mutate(t = as.numeric(Month - min(Month) + 1))

pbs

#> # A tsibble: 17,016 x 4 [1M]
#> # Key:       ATC2 [84]
#>    ATC2     Month Scripts     t
#>    <chr>    <mth>   <dbl> <dbl>
#>  1 A01   1991 Jul    22.6     1
#>  2 A01   1991 Aug    20.4     2
#>  3 A01   1991 Sep    21.4     3
#>  4 A01   1991 Oct    23.7     4
#>  5 A01   1991 Nov    23.5     5
#>  6 A01   1991 Dec    26.3     6
#>  7 A01   1992 Jan    22.0     7
#>  8 A01   1992 Feb    16.4     8
#>  9 A01   1992 Mar    17.2     9
#> 10 A01   1992 Apr    18.8    10
#> # ℹ 17,006 more rows
…
Figure 9.6: Rolling origin forecasts, with the training sets expanding by one observation at each iteration, and one-step forecasts computed for each training set.

Let’s step through the process for the first iteration, with t=36. We fit ETS models to each of the time series, with the specific ETS model selected according to the characteristics of the series. See (Ch8, Hyndman and Athanasopoulos 2021) for details of how this is done.

pbs_fit <- pbs |>
  filter(t <= 36) |>
  model(ets = ETS(Scripts))
pbs_fit

#> # A mable: 83 x 2
#> # Key:     ATC2 [83]
#>    ATC2           ets
#>    <chr>      <model>
#>  1 A01   <ETS(M,N,A)>
#>  2 A02   <ETS(M,A,M)>
#>  3 A03   <ETS(M,A,M)>
#>  4 A04   <ETS(M,N,A)>
#>  5 A06   <ETS(M,A,M)>
#>  6 A07   <ETS(M,N,M)>
#>  7 A09   <ETS(M,A,M)>
#>  8 A10   <ETS(M,A,M)>
#>  9 A11   <ETS(M,A,M)>
#> 10 A12   <ETS(M,N,A)>
#> # ℹ 73 more rows

Forecasts are produced from all fitted models by applying the forecast() function to the model table.

pbs_fc <- forecast(pbs_fit, h = 1)
pbs_fc

#> # A fable: 83 x 5 [1M]
#> # Key:     ATC2, .model [83]
#>    ATC2  .model    Month
#>    <chr> <chr>     <mth>
#>  1 A01   ets    1994 Jul
#>  2 A02   ets    1994 Jul
#>  3 A03   ets    1994 Jul
#>  4 A04   ets    1994 Jul
#>  5 A06   ets    1994 Jul
#>  6 A07   ets    1994 Jul
#>  7 A09   ets    1994 Jul
#>  8 A10   ets    1994 Jul
#>  9 A11   ets    1994 Jul
#> 10 A12   ets    1994 Jul
#> # ℹ 73 more rows
#> # ℹ 2 more variables: Scripts <dist>, .mean <dbl>

The forecasts are in the Scripts column. Note that each of them is a Normal distribution where the mean and variance has been estimated using the ETS model. The mean of the forecast distribution is given as .mean.

We can compute the density scores using the log_likelihood() function from the distributional package, and calculate the lookout probabilities.

pbs_scores <- pbs_fc |>
  rename(fcast = Scripts) |>
  left_join(pbs |> filter(t == 37), by = c("Month", "ATC2")) |>
  mutate(
    s = -distributional::log_likelihood(fcast, Scripts),
    prob = surprisals(s)
  )
pbs_scores

#> # A tsibble: 83 x 9 [?]
#> # Key:       ATC2, .model [83]
#>    ATC2  .model    Month
#>    <chr> <chr>     <mth>
#>  1 A01   ets    1994 Jul
#>  2 A02   ets    1994 Jul
#>  3 A03   ets    1994 Jul
#>  4 A04   ets    1994 Jul
#>  5 A06   ets    1994 Jul
#>  6 A07   ets    1994 Jul
#>  7 A09   ets    1994 Jul
#>  8 A10   ets    1994 Jul
#>  9 A11   ets    1994 Jul
#> 10 A12   ets    1994 Jul
#> # ℹ 73 more rows
#> # ℹ 6 more variables: fcast <dist>, .mean <dbl>, Scripts <dbl>, t <dbl>,
#> #   s <dbl>, prob <dbl>
…
Code

pbs_scores

#> # A tsibble: 17,016 x 8 [1M]
#> # Key:       ATC2 [84]
#>    ATC2     Month Scripts     t     s  prob fmean  fvar
#>    <chr>    <mth>   <dbl> <dbl> <dbl> <dbl> <dbl> <dbl>
#>  1 A01   1991 Jul    22.6     1    NA    NA    NA    NA
#>  2 A01   1991 Aug    20.4     2    NA    NA    NA    NA
#>  3 A01   1991 Sep    21.4     3    NA    NA    NA    NA
#>  4 A01   1991 Oct    23.7     4    NA    NA    NA    NA
#>  5 A01   1991 Nov    23.5     5    NA    NA    NA    NA
#>  6 A01   1991 Dec    26.3     6    NA    NA    NA    NA
#>  7 A01   1992 Jan    22.0     7    NA    NA    NA    NA
#>  8 A01   1992 Feb    16.4     8    NA    NA    NA    NA
#>  9 A01   1992 Mar    17.2     9    NA    NA    NA    NA
#> 10 A01   1992 Apr    18.8    10    NA    NA    NA    NA
#> # ℹ 17,006 more rows
…
